<svg width="28" height="28" viewBox="0 0 28 28" fill="none" xmlns="http://www.w3.org/2000/svg">
<circle cx="14" cy="14" r="13" stroke="#2D2B2B" stroke-width="2"/>
<path fill-rule="evenodd" clip-rule="evenodd" d="M9.46692 9.30357C9.06226 9.70824 9.06226 10.3643 9.46692 10.769L12.6187 13.9207L9.30838 17.231C8.90372 17.6357 8.90372 18.2918 9.30838 18.6964C9.71305 19.1011 10.3691 19.1011 10.7738 18.6964L14.0841 15.3862L17.3944 18.6965C17.7991 19.1012 18.4552 19.1012 18.8598 18.6965C19.2645 18.2918 19.2645 17.6357 18.8598 17.2311L15.5495 13.9207L18.7013 10.7689C19.106 10.3643 19.106 9.70816 18.7013 9.3035C18.2966 8.89883 17.6406 8.89883 17.2359 9.3035L14.0841 12.4553L10.9323 9.30357C10.5277 8.89891 9.87159 8.89891 9.46692 9.30357Z" fill="#2D2B2B"/>
</svg>
